<?xml version="1.0" encoding="UTF-8" standalone="no"?>
<!-- Created with Inkscape (http://www.inkscape.org/) -->

<svg
   width="15.822924mm"
   height="152.39435mm"
   viewBox="0 0 15.822924 152.39435"
   version="1.1"
   id="svg5"
   xmlns="http://www.w3.org/2000/svg"
   xmlns:svg="http://www.w3.org/2000/svg">
  <defs
     id="defs2" />
  <g
     id="layer1"
     transform="translate(-118.27054,-153.66)">
    <g
       id="g12807">
      <g
         id="g12561">
        <rect
           style="fill:#d2810e;fill-opacity:1;stroke:none;stroke-width:0.264999;stroke-linecap:round;stroke-linejoin:round"
           id="rect8384"
           width="15.822881"
           height="38.098583"
           x="118.27054"
           y="153.66"
           ry="5.0161667"
           rx="5.0161667" />
        <path
           id="rect9786"
           style="fill:#a4650b;fill-opacity:1;stroke:none;stroke-width:1.00157;stroke-linecap:round;stroke-linejoin:round"
           d="m 229.66406,408.64844 c -3.16542,5.36884 -5.55264,11.22995 -7.74609,17.08594 -5.97634,15.95531 -10.86748,32.82898 -9.39063,49.80273 0.90834,10.43981 4.21434,20.68473 3.8125,31.15625 -0.20107,5.23578 -1.37409,10.51669 -4.0664,15.01172 -2.69227,4.49499 -7.01083,8.14092 -12.10352,9.37304 -2.33662,0.56535 -4.76259,0.61947 -7.16406,0.73047 -2.40144,0.11112 -4.83331,0.28734 -7.10352,1.07813 -2.99047,1.04183 -5.57325,3.13942 -7.35156,5.75976 -0.0324,0.0477 -0.06,0.0985 -0.0918,0.14649 3.46532,4.41242 8.84906,7.24023 14.91993,7.24023 h 21.88476 c 10.50314,0 18.95899,-8.45389 18.95899,-18.95703 V 420.99805 c 0,-4.72752 -1.71683,-9.03608 -4.5586,-12.34961 z"
           transform="matrix(0.26458333,0,0,0.26458333,72.122051,47.287074)" />
        <ellipse
           style="fill:#8a4109;fill-opacity:1;stroke:none;stroke-width:0.264999;stroke-linecap:round;stroke-linejoin:round"
           id="path11864"
           cx="123.51965"
           cy="163.66147"
           rx="1.8810626"
           ry="3.3792064" />
      </g>
      <g
         id="g12561-6"
         transform="translate(0,38.098587)">
        <rect
           style="fill:#d2810e;fill-opacity:1;stroke:none;stroke-width:0.264999;stroke-linecap:round;stroke-linejoin:round"
           id="rect8384-7"
           width="15.822881"
           height="38.098583"
           x="118.27054"
           y="153.66"
           ry="5.0161667"
           rx="5.0161667" />
        <path
           id="rect9786-5"
           style="fill:#a4650b;fill-opacity:1;stroke:none;stroke-width:1.00157;stroke-linecap:round;stroke-linejoin:round"
           d="m 229.66406,408.64844 c -3.16542,5.36884 -5.55264,11.22995 -7.74609,17.08594 -5.97634,15.95531 -10.86748,32.82898 -9.39063,49.80273 0.90834,10.43981 4.21434,20.68473 3.8125,31.15625 -0.20107,5.23578 -1.37409,10.51669 -4.0664,15.01172 -2.69227,4.49499 -7.01083,8.14092 -12.10352,9.37304 -2.33662,0.56535 -4.76259,0.61947 -7.16406,0.73047 -2.40144,0.11112 -4.83331,0.28734 -7.10352,1.07813 -2.99047,1.04183 -5.57325,3.13942 -7.35156,5.75976 -0.0324,0.0477 -0.06,0.0985 -0.0918,0.14649 3.46532,4.41242 8.84906,7.24023 14.91993,7.24023 h 21.88476 c 10.50314,0 18.95899,-8.45389 18.95899,-18.95703 V 420.99805 c 0,-4.72752 -1.71683,-9.03608 -4.5586,-12.34961 z"
           transform="matrix(0.26458333,0,0,0.26458333,72.122051,47.287074)" />
        <ellipse
           style="fill:#8a4109;fill-opacity:1;stroke:none;stroke-width:0.264999;stroke-linecap:round;stroke-linejoin:round"
           id="path11864-3"
           cx="125.48856"
           cy="178.11313"
           rx="1.8810626"
           ry="3.3792064" />
      </g>
      <g
         id="g12561-6-5"
         transform="translate(0,76.197174)">
        <rect
           style="fill:#d2810e;fill-opacity:1;stroke:none;stroke-width:0.264999;stroke-linecap:round;stroke-linejoin:round"
           id="rect8384-7-6"
           width="15.822881"
           height="38.098583"
           x="118.27054"
           y="153.66"
           ry="5.0161667"
           rx="5.0161667" />
        <path
           id="rect9786-5-2"
           style="fill:#a4650b;fill-opacity:1;stroke:none;stroke-width:1.00157;stroke-linecap:round;stroke-linejoin:round"
           d="m 229.66406,408.64844 c -3.16542,5.36884 -5.55264,11.22995 -7.74609,17.08594 -5.97634,15.95531 -10.86748,32.82898 -9.39063,49.80273 0.90834,10.43981 4.21434,20.68473 3.8125,31.15625 -0.20107,5.23578 -1.37409,10.51669 -4.0664,15.01172 -2.69227,4.49499 -7.01083,8.14092 -12.10352,9.37304 -2.33662,0.56535 -4.76259,0.61947 -7.16406,0.73047 -2.40144,0.11112 -4.83331,0.28734 -7.10352,1.07813 -2.99047,1.04183 -5.57325,3.13942 -7.35156,5.75976 -0.0324,0.0477 -0.06,0.0985 -0.0918,0.14649 3.46532,4.41242 8.84906,7.24023 14.91993,7.24023 h 21.88476 c 10.50314,0 18.95899,-8.45389 18.95899,-18.95703 V 420.99805 c 0,-4.72752 -1.71683,-9.03608 -4.5586,-12.34961 z"
           transform="matrix(0.26458333,0,0,0.26458333,72.122051,47.287074)" />
        <ellipse
           style="fill:#8a4109;fill-opacity:1;stroke:none;stroke-width:0.264999;stroke-linecap:round;stroke-linejoin:round"
           id="path11864-3-9"
           cx="129.46394"
           cy="160.67055"
           rx="1.8810626"
           ry="3.3792064" />
      </g>
      <g
         id="g12561-6-5-1"
         transform="translate(0,114.29576)">
        <rect
           style="fill:#d2810e;fill-opacity:1;stroke:none;stroke-width:0.264999;stroke-linecap:round;stroke-linejoin:round"
           id="rect8384-7-6-2"
           width="15.822881"
           height="38.098583"
           x="118.27054"
           y="153.66"
           ry="5.0161667"
           rx="5.0161667" />
        <path
           id="rect9786-5-2-7"
           style="fill:#a4650b;fill-opacity:1;stroke:none;stroke-width:1.00157;stroke-linecap:round;stroke-linejoin:round"
           d="m 229.66406,408.64844 c -3.16542,5.36884 -5.55264,11.22995 -7.74609,17.08594 -5.97634,15.95531 -10.86748,32.82898 -9.39063,49.80273 0.90834,10.43981 4.21434,20.68473 3.8125,31.15625 -0.20107,5.23578 -1.37409,10.51669 -4.0664,15.01172 -2.69227,4.49499 -7.01083,8.14092 -12.10352,9.37304 -2.33662,0.56535 -4.76259,0.61947 -7.16406,0.73047 -2.40144,0.11112 -4.83331,0.28734 -7.10352,1.07813 -2.99047,1.04183 -5.57325,3.13942 -7.35156,5.75976 -0.0324,0.0477 -0.06,0.0985 -0.0918,0.14649 3.46532,4.41242 8.84906,7.24023 14.91993,7.24023 h 21.88476 c 10.50314,0 18.95899,-8.45389 18.95899,-18.95703 V 420.99805 c 0,-4.72752 -1.71683,-9.03608 -4.5586,-12.34961 z"
           transform="matrix(0.26458333,0,0,0.26458333,72.122051,47.287074)" />
        <ellipse
           style="fill:#8a4109;fill-opacity:1;stroke:none;stroke-width:0.264999;stroke-linecap:round;stroke-linejoin:round"
           id="path11864-3-9-0"
           cx="125.77425"
           cy="170.75116"
           rx="1.8810626"
           ry="3.3792064" />
      </g>
    </g>
  </g>
</svg>
